M       Threshold      S/Tot Simul.        SigmaFactor     S/Tot Expected  

0.01                    623/4000             3*10**-6       1.5*10**-10
0.02                    645/4000               10**-5         5*10**-11
0.03                    654/4000             2*10**-5      2.58*10**-11
0.05      20            279/4000             2*10**-5       1.1*10**-11
0.07      20            125/4000             2*10**-5         5*10**-12
