<?xml version="1.0" encoding="utf-8" ?>
<!DOCTYPE svg PUBLIC "-//W3C//DTD SVG 1.1//EN" "http://www.w3.org/Graphics/SVG/1.1/DTD/svg11.dtd">
<svg height="892" version="1.1" width="1372" xmlns="http://www.w3.org/2000/svg">
<rect fill="#ffffff" height="576" stroke="#ffffff" stroke-width="1" width="264" x="398" y="254"/>
<rect fill="none" height="576" stroke="#000000" stroke-width="1" width="264" x="398" y="254"/>
<rect fill="#ffffff" height="864" stroke="#ffffff" stroke-width="1" width="664" x="694" y="14"/>
<rect fill="none" height="864" stroke="#000000" stroke-width="1" width="664" x="694" y="14"/>
<rect fill="#ffffff" height="248" stroke="#ffffff" stroke-width="1" width="248" x="1094" y="606"/>
<rect fill="none" height="248" stroke="#000000" stroke-width="1" width="248" x="1094" y="606"/>
<rect fill="#ffffff" height="208" stroke="#ffffff" stroke-width="1" width="232" x="1110" y="334"/>
<rect fill="none" height="208" stroke="#000000" stroke-width="1" width="232" x="1110" y="334"/>
<rect fill="#ffffff" height="240" stroke="#ffffff" stroke-width="1" width="272" x="1070" y="46"/>
<rect fill="none" height="240" stroke="#000000" stroke-width="1" width="272" x="1070" y="46"/>
<text font-family="Dialog" font-size="48" x="702" y="67">
P348g4 library</text>
<text font-family="Dialog" font-size="18" x="1102" y="631">
Sensitive detectors</text>
<text font-family="Dialog" font-size="18" x="1118" y="359">
Event processors</text>
<text font-family="Dialog" font-size="18" x="1078" y="71">
Data sources</text>
<text font-family="Dialog" font-size="12" x="283" y="378">
Developer</text>
<ellipse cx="314" cy="327" fill="#000000" rx="8.0" ry="7.5" stroke="#000000" stroke-width="1"/>
<ellipse cx="314" cy="327" fill="#ffffff" rx="7.0" ry="6.5" stroke="#ffffff" stroke-width="1"/>
<line fill="#000000" stroke="#000000" stroke-width="1" x1="314" x2="314" y1="335" y2="350"/>
<line fill="#000000" stroke="#000000" stroke-width="1" x1="304" x2="324" y1="340" y2="340"/>
<line fill="#000000" stroke="#000000" stroke-width="1" x1="314" x2="309" y1="350" y2="365"/>
<line fill="#000000" stroke="#000000" stroke-width="1" x1="314" x2="319" y1="350" y2="365"/>
<ellipse cx="535" cy="370" fill="#000000" rx="89.0" ry="36.0" stroke="#000000" stroke-width="1"/>
<ellipse cx="535" cy="370" fill="#ffffff" rx="88.0" ry="35.0" stroke="#ffffff" stroke-width="1"/>
<text font-family="Dialog" font-size="12" x="460" y="371">
Event analyzer --- p348a</text>
<polyline fill="none" points="324,340 451,358" stroke="#000000" stroke-width="1"/>
<ellipse cx="534" cy="491" fill="#000000" rx="96.0" ry="29.0" stroke="#000000" stroke-width="1"/>
<ellipse cx="534" cy="491" fill="#ffffff" rx="95.0" ry="28.0" stroke="#ffffff" stroke-width="1"/>
<text font-family="Dialog" font-size="12" x="455" y="492">
Geant4 MC --- p348g4mdl</text>
<polyline fill="none" points="319,388 482,466" stroke="#000000" stroke-width="1"/>
<ellipse cx="530" cy="639" fill="#000000" rx="108.0" ry="33.0" stroke="#000000" stroke-width="1"/>
<ellipse cx="530" cy="639" fill="#ffffff" rx="107.0" ry="32.0" stroke="#ffffff" stroke-width="1"/>
<text font-family="Dialog" font-size="12" x="435" y="640">
View Geant4 Geometry --- mdlv</text>
<ellipse cx="151" cy="266" fill="#000000" rx="89.0" ry="28.0" stroke="#000000" stroke-width="1"/>
<ellipse cx="151" cy="266" fill="#ffffff" rx="88.0" ry="27.0" stroke="#ffffff" stroke-width="1"/>
<text font-family="Dialog" font-size="12" x="75" y="267">
Develop own application</text>
<polyline fill="none" points="305,324 208,287" stroke="#000000" stroke-width="1"/>
<ellipse cx="887" cy="171" fill="#3c3cc8" rx="57.0" ry="21.0" stroke="#3c3cc8" stroke-width="1"/>
<ellipse cx="887" cy="171" fill="#ffffc8" rx="56.0" ry="20.0" stroke="#ffffc8" stroke-width="1"/>
<text font-family="Dialog" font-size="12" x="851" y="172">
Read event</text>
<ellipse cx="838" cy="628" fill="#000000" rx="64.0" ry="22.0" stroke="#000000" stroke-width="1"/>
<ellipse cx="838" cy="628" fill="#ffffff" rx="63.0" ry="21.0" stroke="#ffffff" stroke-width="1"/>
<text font-family="Dialog" font-size="12" x="791" y="629">
Simulate event</text>
<ellipse cx="1042" cy="403" fill="#3c3cc8" rx="60.0" ry="21.0" stroke="#3c3cc8" stroke-width="1"/>
<ellipse cx="1042" cy="403" fill="#ffffc8" rx="59.0" ry="20.0" stroke="#ffffc8" stroke-width="1"/>
<text font-family="Dialog" font-size="12" x="997" y="404">
Process event</text>
<ellipse cx="797" cy="711" fill="#000000" rx="79.0" ry="25.0" stroke="#000000" stroke-width="1"/>
<ellipse cx="797" cy="711" fill="#ffffff" rx="78.0" ry="24.0" stroke="#ffffff" stroke-width="1"/>
<text font-family="Dialog" font-size="12" x="732" y="712">
View GDML geometry</text>
<ellipse cx="216" cy="733" fill="#000000" rx="66.0" ry="23.0" stroke="#000000" stroke-width="1"/>
<ellipse cx="216" cy="733" fill="#ffffff" rx="65.0" ry="22.0" stroke="#ffffff" stroke-width="1"/>
<text font-family="Dialog" font-size="12" x="164" y="734">
Modify Geometry</text>
<ellipse cx="855" cy="398" fill="#000000" rx="89.0" ry="32.0" stroke="#000000" stroke-width="1"/>
<ellipse cx="855" cy="398" fill="#ffffff" rx="88.0" ry="31.0" stroke="#ffffff" stroke-width="1"/>
<text font-family="Dialog" font-size="12" x="779" y="399">
Produce event statistics</text>
<line fill="#000000" stroke="#000000" stroke-width="1" x1="587" x2="591" y1="515" y2="517"/>
<line fill="#000000" stroke="#000000" stroke-width="1" x1="596" x2="600" y1="519" y2="521"/>
<line fill="#000000" stroke="#000000" stroke-width="1" x1="605" x2="609" y1="523" y2="525"/>
<line fill="#000000" stroke="#000000" stroke-width="1" x1="614" x2="618" y1="527" y2="529"/>
<line fill="#000000" stroke="#000000" stroke-width="1" x1="623" x2="628" y1="531" y2="533"/>
<line fill="#000000" stroke="#000000" stroke-width="1" x1="632" x2="637" y1="535" y2="537"/>
<line fill="#000000" stroke="#000000" stroke-width="1" x1="641" x2="646" y1="539" y2="541"/>
<line fill="#000000" stroke="#000000" stroke-width="1" x1="650" x2="655" y1="543" y2="545"/>
<line fill="#000000" stroke="#000000" stroke-width="1" x1="660" x2="664" y1="547" y2="549"/>
<line fill="#000000" stroke="#000000" stroke-width="1" x1="669" x2="673" y1="551" y2="553"/>
<line fill="#000000" stroke="#000000" stroke-width="1" x1="678" x2="682" y1="555" y2="557"/>
<line fill="#000000" stroke="#000000" stroke-width="1" x1="687" x2="692" y1="560" y2="562"/>
<line fill="#000000" stroke="#000000" stroke-width="1" x1="696" x2="701" y1="564" y2="566"/>
<line fill="#000000" stroke="#000000" stroke-width="1" x1="705" x2="710" y1="568" y2="570"/>
<line fill="#000000" stroke="#000000" stroke-width="1" x1="714" x2="719" y1="572" y2="574"/>
<line fill="#000000" stroke="#000000" stroke-width="1" x1="724" x2="728" y1="576" y2="578"/>
<line fill="#000000" stroke="#000000" stroke-width="1" x1="733" x2="737" y1="580" y2="582"/>
<line fill="#000000" stroke="#000000" stroke-width="1" x1="742" x2="746" y1="584" y2="586"/>
<line fill="#000000" stroke="#000000" stroke-width="1" x1="751" x2="756" y1="588" y2="590"/>
<line fill="#000000" stroke="#000000" stroke-width="1" x1="760" x2="765" y1="592" y2="594"/>
<line fill="#000000" stroke="#000000" stroke-width="1" x1="769" x2="774" y1="596" y2="598"/>
<line fill="#000000" stroke="#000000" stroke-width="1" x1="778" x2="783" y1="600" y2="603"/>
<line fill="#000000" stroke="#000000" stroke-width="1" x1="788" x2="792" y1="605" y2="607"/>
<line fill="#000000" stroke="#000000" stroke-width="1" x1="797" x2="799" y1="609" y2="610"/>
<line fill="#000000" stroke="#000000" stroke-width="1" x1="785" x2="799" y1="611" y2="610"/>
<line fill="#000000" stroke="#000000" stroke-width="1" x1="790" x2="799" y1="598" y2="610"/>
<text font-family="Dialog" font-size="12" x="629" y="528">
&lt;&lt;include&gt;&gt;</text>
<line fill="#000000" stroke="#000000" stroke-width="1" x1="611" x2="615" y1="660" y2="661"/>
<line fill="#000000" stroke="#000000" stroke-width="1" x1="620" x2="625" y1="662" y2="663"/>
<line fill="#000000" stroke="#000000" stroke-width="1" x1="630" x2="635" y1="665" y2="666"/>
<line fill="#000000" stroke="#000000" stroke-width="1" x1="640" x2="644" y1="667" y2="669"/>
<line fill="#000000" stroke="#000000" stroke-width="1" x1="649" x2="654" y1="670" y2="671"/>
<line fill="#000000" stroke="#000000" stroke-width="1" x1="659" x2="664" y1="673" y2="674"/>
<line fill="#000000" stroke="#000000" stroke-width="1" x1="669" x2="674" y1="675" y2="677"/>
<line fill="#000000" stroke="#000000" stroke-width="1" x1="678" x2="683" y1="678" y2="679"/>
<line fill="#000000" stroke="#000000" stroke-width="1" x1="688" x2="693" y1="680" y2="682"/>
<line fill="#000000" stroke="#000000" stroke-width="1" x1="698" x2="703" y1="683" y2="684"/>
<line fill="#000000" stroke="#000000" stroke-width="1" x1="707" x2="712" y1="686" y2="687"/>
<line fill="#000000" stroke="#000000" stroke-width="1" x1="717" x2="722" y1="688" y2="690"/>
<line fill="#000000" stroke="#000000" stroke-width="1" x1="727" x2="732" y1="691" y2="692"/>
<line fill="#000000" stroke="#000000" stroke-width="1" x1="723" x2="737" y1="697" y2="694"/>
<line fill="#000000" stroke="#000000" stroke-width="1" x1="727" x2="737" y1="684" y2="694"/>
<text font-family="Dialog" font-size="12" x="623" y="703">
&lt;&lt;include&gt;&gt;</text>
<line fill="#000000" stroke="#000000" stroke-width="1" x1="769" x2="766" y1="687" y2="684"/>
<line fill="#000000" stroke="#000000" stroke-width="1" x1="762" x2="758" y1="681" y2="678"/>
<line fill="#000000" stroke="#000000" stroke-width="1" x1="754" x2="750" y1="675" y2="671"/>
<line fill="#000000" stroke="#000000" stroke-width="1" x1="746" x2="743" y1="668" y2="665"/>
<line fill="#000000" stroke="#000000" stroke-width="1" x1="739" x2="735" y1="662" y2="659"/>
<line fill="#000000" stroke="#000000" stroke-width="1" x1="731" x2="727" y1="655" y2="652"/>
<line fill="#000000" stroke="#000000" stroke-width="1" x1="723" x2="720" y1="649" y2="646"/>
<line fill="#000000" stroke="#000000" stroke-width="1" x1="716" x2="712" y1="643" y2="639"/>
<line fill="#000000" stroke="#000000" stroke-width="1" x1="708" x2="704" y1="636" y2="633"/>
<line fill="#000000" stroke="#000000" stroke-width="1" x1="700" x2="696" y1="630" y2="627"/>
<line fill="#000000" stroke="#000000" stroke-width="1" x1="693" x2="689" y1="623" y2="620"/>
<line fill="#000000" stroke="#000000" stroke-width="1" x1="685" x2="681" y1="617" y2="614"/>
<line fill="#000000" stroke="#000000" stroke-width="1" x1="677" x2="673" y1="611" y2="607"/>
<line fill="#000000" stroke="#000000" stroke-width="1" x1="670" x2="666" y1="604" y2="601"/>
<line fill="#000000" stroke="#000000" stroke-width="1" x1="662" x2="658" y1="598" y2="595"/>
<line fill="#000000" stroke="#000000" stroke-width="1" x1="654" x2="650" y1="591" y2="588"/>
<line fill="#000000" stroke="#000000" stroke-width="1" x1="646" x2="643" y1="585" y2="582"/>
<line fill="#000000" stroke="#000000" stroke-width="1" x1="639" x2="635" y1="579" y2="575"/>
<line fill="#000000" stroke="#000000" stroke-width="1" x1="631" x2="627" y1="572" y2="569"/>
<line fill="#000000" stroke="#000000" stroke-width="1" x1="623" x2="620" y1="566" y2="563"/>
<line fill="#000000" stroke="#000000" stroke-width="1" x1="616" x2="612" y1="559" y2="556"/>
<line fill="#000000" stroke="#000000" stroke-width="1" x1="608" x2="604" y1="553" y2="550"/>
<line fill="#000000" stroke="#000000" stroke-width="1" x1="600" x2="596" y1="547" y2="543"/>
<line fill="#000000" stroke="#000000" stroke-width="1" x1="593" x2="589" y1="540" y2="537"/>
<line fill="#000000" stroke="#000000" stroke-width="1" x1="585" x2="581" y1="534" y2="531"/>
<line fill="#000000" stroke="#000000" stroke-width="1" x1="577" x2="573" y1="527" y2="524"/>
<line fill="#000000" stroke="#000000" stroke-width="1" x1="570" x2="566" y1="521" y2="518"/>
<line fill="#000000" stroke="#000000" stroke-width="1" x1="579" x2="566" y1="520" y2="518"/>
<line fill="#000000" stroke="#000000" stroke-width="1" x1="570" x2="566" y1="531" y2="518"/>
<text font-family="Dialog" font-size="12" x="510" y="555">
&lt;&lt;extend&gt;&gt;</text>
<line fill="#000000" stroke="#000000" stroke-width="1" x1="452" x2="448" y1="661" y2="662"/>
<line fill="#000000" stroke="#000000" stroke-width="1" x1="443" x2="438" y1="663" y2="665"/>
<line fill="#000000" stroke="#000000" stroke-width="1" x1="433" x2="429" y1="666" y2="668"/>
<line fill="#000000" stroke="#000000" stroke-width="1" x1="424" x2="419" y1="669" y2="671"/>
<line fill="#000000" stroke="#000000" stroke-width="1" x1="414" x2="409" y1="672" y2="673"/>
<line fill="#000000" stroke="#000000" stroke-width="1" x1="405" x2="400" y1="675" y2="676"/>
<line fill="#000000" stroke="#000000" stroke-width="1" x1="395" x2="390" y1="678" y2="679"/>
<line fill="#000000" stroke="#000000" stroke-width="1" x1="385" x2="381" y1="681" y2="682"/>
<line fill="#000000" stroke="#000000" stroke-width="1" x1="376" x2="371" y1="683" y2="685"/>
<line fill="#000000" stroke="#000000" stroke-width="1" x1="366" x2="361" y1="686" y2="688"/>
<line fill="#000000" stroke="#000000" stroke-width="1" x1="357" x2="352" y1="689" y2="691"/>
<line fill="#000000" stroke="#000000" stroke-width="1" x1="347" x2="342" y1="692" y2="694"/>
<line fill="#000000" stroke="#000000" stroke-width="1" x1="337" x2="333" y1="695" y2="696"/>
<line fill="#000000" stroke="#000000" stroke-width="1" x1="328" x2="323" y1="698" y2="699"/>
<line fill="#000000" stroke="#000000" stroke-width="1" x1="318" x2="313" y1="701" y2="702"/>
<line fill="#000000" stroke="#000000" stroke-width="1" x1="309" x2="304" y1="704" y2="705"/>
<line fill="#000000" stroke="#000000" stroke-width="1" x1="299" x2="294" y1="706" y2="708"/>
<line fill="#000000" stroke="#000000" stroke-width="1" x1="289" x2="285" y1="709" y2="711"/>
<line fill="#000000" stroke="#000000" stroke-width="1" x1="280" x2="275" y1="712" y2="714"/>
<line fill="#000000" stroke="#000000" stroke-width="1" x1="270" x2="265" y1="715" y2="717"/>
<line fill="#000000" stroke="#000000" stroke-width="1" x1="274" x2="265" y1="706" y2="717"/>
<line fill="#000000" stroke="#000000" stroke-width="1" x1="278" x2="265" y1="720" y2="717"/>
<text font-family="Dialog" font-size="12" x="302" y="724">
&lt;&lt;extend&gt;&gt;</text>
<line fill="#000000" stroke="#000000" stroke-width="1" x1="586" x2="590" y1="340" y2="338"/>
<line fill="#000000" stroke="#000000" stroke-width="1" x1="594" x2="599" y1="336" y2="333"/>
<line fill="#000000" stroke="#000000" stroke-width="1" x1="603" x2="607" y1="331" y2="328"/>
<line fill="#000000" stroke="#000000" stroke-width="1" x1="612" x2="616" y1="326" y2="323"/>
<line fill="#000000" stroke="#000000" stroke-width="1" x1="620" x2="625" y1="321" y2="318"/>
<line fill="#000000" stroke="#000000" stroke-width="1" x1="629" x2="634" y1="316" y2="313"/>
<line fill="#000000" stroke="#000000" stroke-width="1" x1="638" x2="642" y1="311" y2="308"/>
<line fill="#000000" stroke="#000000" stroke-width="1" x1="647" x2="651" y1="306" y2="303"/>
<line fill="#000000" stroke="#000000" stroke-width="1" x1="655" x2="660" y1="301" y2="299"/>
<line fill="#000000" stroke="#000000" stroke-width="1" x1="664" x2="668" y1="296" y2="294"/>
<line fill="#000000" stroke="#000000" stroke-width="1" x1="673" x2="677" y1="291" y2="289"/>
<line fill="#000000" stroke="#000000" stroke-width="1" x1="682" x2="686" y1="286" y2="284"/>
<line fill="#000000" stroke="#000000" stroke-width="1" x1="690" x2="695" y1="281" y2="279"/>
<line fill="#000000" stroke="#000000" stroke-width="1" x1="699" x2="703" y1="276" y2="274"/>
<line fill="#000000" stroke="#000000" stroke-width="1" x1="708" x2="712" y1="271" y2="269"/>
<line fill="#000000" stroke="#000000" stroke-width="1" x1="717" x2="721" y1="266" y2="264"/>
<line fill="#000000" stroke="#000000" stroke-width="1" x1="725" x2="730" y1="262" y2="259"/>
<line fill="#000000" stroke="#000000" stroke-width="1" x1="734" x2="738" y1="257" y2="254"/>
<line fill="#000000" stroke="#000000" stroke-width="1" x1="743" x2="747" y1="252" y2="249"/>
<line fill="#000000" stroke="#000000" stroke-width="1" x1="751" x2="756" y1="247" y2="244"/>
<line fill="#000000" stroke="#000000" stroke-width="1" x1="760" x2="765" y1="242" y2="239"/>
<line fill="#000000" stroke="#000000" stroke-width="1" x1="769" x2="773" y1="237" y2="234"/>
<line fill="#000000" stroke="#000000" stroke-width="1" x1="778" x2="782" y1="232" y2="229"/>
<line fill="#000000" stroke="#000000" stroke-width="1" x1="786" x2="791" y1="227" y2="225"/>
<line fill="#000000" stroke="#000000" stroke-width="1" x1="795" x2="799" y1="222" y2="220"/>
<line fill="#000000" stroke="#000000" stroke-width="1" x1="804" x2="808" y1="217" y2="215"/>
<line fill="#000000" stroke="#000000" stroke-width="1" x1="813" x2="817" y1="212" y2="210"/>
<line fill="#000000" stroke="#000000" stroke-width="1" x1="821" x2="826" y1="207" y2="205"/>
<line fill="#000000" stroke="#000000" stroke-width="1" x1="830" x2="834" y1="202" y2="200"/>
<line fill="#000000" stroke="#000000" stroke-width="1" x1="839" x2="843" y1="197" y2="195"/>
<line fill="#000000" stroke="#000000" stroke-width="1" x1="848" x2="852" y1="192" y2="190"/>
<line fill="#000000" stroke="#000000" stroke-width="1" x1="847" x2="855" y1="199" y2="188"/>
<line fill="#000000" stroke="#000000" stroke-width="1" x1="841" x2="855" y1="187" y2="188"/>
<text font-family="Dialog" font-size="12" x="664" y="243">
&lt;&lt;include&gt;&gt;</text>
<line fill="#000000" stroke="#000000" stroke-width="1" x1="622" x2="627" y1="377" y2="377"/>
<line fill="#000000" stroke="#000000" stroke-width="1" x1="632" x2="637" y1="377" y2="378"/>
<line fill="#000000" stroke="#000000" stroke-width="1" x1="642" x2="647" y1="378" y2="379"/>
<line fill="#000000" stroke="#000000" stroke-width="1" x1="652" x2="657" y1="379" y2="380"/>
<line fill="#000000" stroke="#000000" stroke-width="1" x1="662" x2="667" y1="380" y2="381"/>
<line fill="#000000" stroke="#000000" stroke-width="1" x1="672" x2="677" y1="381" y2="381"/>
<line fill="#000000" stroke="#000000" stroke-width="1" x1="682" x2="687" y1="382" y2="382"/>
<line fill="#000000" stroke="#000000" stroke-width="1" x1="692" x2="697" y1="383" y2="383"/>
<line fill="#000000" stroke="#000000" stroke-width="1" x1="702" x2="707" y1="384" y2="384"/>
<line fill="#000000" stroke="#000000" stroke-width="1" x1="712" x2="717" y1="385" y2="385"/>
<line fill="#000000" stroke="#000000" stroke-width="1" x1="722" x2="727" y1="385" y2="386"/>
<line fill="#000000" stroke="#000000" stroke-width="1" x1="732" x2="737" y1="386" y2="387"/>
<line fill="#000000" stroke="#000000" stroke-width="1" x1="742" x2="747" y1="387" y2="388"/>
<line fill="#000000" stroke="#000000" stroke-width="1" x1="752" x2="757" y1="388" y2="389"/>
<line fill="#000000" stroke="#000000" stroke-width="1" x1="762" x2="767" y1="389" y2="389"/>
<line fill="#000000" stroke="#000000" stroke-width="1" x1="755" x2="768" y1="395" y2="390"/>
<line fill="#000000" stroke="#000000" stroke-width="1" x1="756" x2="768" y1="381" y2="390"/>
<text font-family="Dialog" font-size="12" x="654" y="375">
&lt;&lt;include&gt;&gt;</text>
<line fill="#000000" stroke="#000000" stroke-width="1" x1="943" x2="948" y1="399" y2="399"/>
<line fill="#000000" stroke="#000000" stroke-width="1" x1="953" x2="958" y1="399" y2="399"/>
<line fill="#000000" stroke="#000000" stroke-width="1" x1="963" x2="968" y1="399" y2="399"/>
<line fill="#000000" stroke="#000000" stroke-width="1" x1="973" x2="978" y1="399" y2="399"/>
<line fill="#000000" stroke="#000000" stroke-width="1" x1="970" x2="982" y1="406" y2="399"/>
<line fill="#000000" stroke="#000000" stroke-width="1" x1="970" x2="982" y1="392" y2="399"/>
<text font-family="Dialog" font-size="12" x="928" y="430">
&lt;&lt;include&gt;&gt;</text>
<text font-family="Dialog" font-size="12" x="290" y="626">
User</text>
<ellipse cx="305" cy="575" fill="#000000" rx="8.0" ry="7.5" stroke="#000000" stroke-width="1"/>
<ellipse cx="305" cy="575" fill="#ffffff" rx="7.0" ry="6.5" stroke="#ffffff" stroke-width="1"/>
<line fill="#000000" stroke="#000000" stroke-width="1" x1="305" x2="305" y1="583" y2="598"/>
<line fill="#000000" stroke="#000000" stroke-width="1" x1="295" x2="315" y1="588" y2="588"/>
<line fill="#000000" stroke="#000000" stroke-width="1" x1="305" x2="300" y1="598" y2="613"/>
<line fill="#000000" stroke="#000000" stroke-width="1" x1="305" x2="310" y1="598" y2="613"/>
<polyline fill="none" points="300,636 235,710" stroke="#000000" stroke-width="1"/>
<polyline fill="none" points="310,636 422,637" stroke="#000000" stroke-width="1"/>
<polyline fill="none" points="309,388 307,567" stroke="#000000" stroke-width="1"/>
<polygon fill="#ffffff" points="307,567 300,554 314,555" stroke="#ffffff" stroke-width="1"/>
<polygon fill="none" points="307,567 300,554 314,555" stroke="#000000" stroke-width="1"/>
<ellipse cx="1231" cy="411" fill="#000000" rx="57.0" ry="21.0" stroke="#000000" stroke-width="1"/>
<ellipse cx="1231" cy="411" fill="#ffffff" rx="56.0" ry="20.0" stroke="#ffffff" stroke-width="1"/>
<text font-family="Dialog" font-size="12" x="1189" y="412">
Analyze SADC</text>
<ellipse cx="1231" cy="475" fill="#000000" rx="57.0" ry="21.0" stroke="#000000" stroke-width="1"/>
<ellipse cx="1231" cy="475" fill="#ffffff" rx="56.0" ry="20.0" stroke="#ffffff" stroke-width="1"/>
<text font-family="Dialog" font-size="12" x="1189" y="476">
Analyze straw</text>
<ellipse cx="97" cy="336" fill="#000000" rx="83.0" ry="26.0" stroke="#000000" stroke-width="1"/>
<ellipse cx="97" cy="336" fill="#ffffff" rx="82.0" ry="25.0" stroke="#ffffff" stroke-width="1"/>
<text font-family="Dialog" font-size="12" x="32" y="337">
Add event processor</text>
<polyline fill="none" points="179,337 304,340" stroke="#000000" stroke-width="1"/>
<line fill="#000000" stroke="#000000" stroke-width="1" x1="1174" x2="1169" y1="405" y2="405"/>
<line fill="#000000" stroke="#000000" stroke-width="1" x1="1164" x2="1159" y1="405" y2="405"/>
<line fill="#000000" stroke="#000000" stroke-width="1" x1="1154" x2="1149" y1="405" y2="405"/>
<line fill="#000000" stroke="#000000" stroke-width="1" x1="1144" x2="1139" y1="405" y2="405"/>
<line fill="#000000" stroke="#000000" stroke-width="1" x1="1134" x2="1129" y1="405" y2="405"/>
<line fill="#000000" stroke="#000000" stroke-width="1" x1="1124" x2="1119" y1="405" y2="405"/>
<line fill="#000000" stroke="#000000" stroke-width="1" x1="1114" x2="1109" y1="405" y2="405"/>
<line fill="#000000" stroke="#000000" stroke-width="1" x1="1104" x2="1101" y1="405" y2="405"/>
<line fill="#000000" stroke="#000000" stroke-width="1" x1="1113" x2="1101" y1="398" y2="405"/>
<line fill="#000000" stroke="#000000" stroke-width="1" x1="1113" x2="1101" y1="412" y2="405"/>
<text font-family="Dialog" font-size="12" x="1096" y="383">
&lt;&lt;extend&gt;&gt;</text>
<line fill="#000000" stroke="#000000" stroke-width="1" x1="1191" x2="1187" y1="459" y2="458"/>
<line fill="#000000" stroke="#000000" stroke-width="1" x1="1182" x2="1177" y1="456" y2="454"/>
<line fill="#000000" stroke="#000000" stroke-width="1" x1="1173" x2="1168" y1="452" y2="451"/>
<line fill="#000000" stroke="#000000" stroke-width="1" x1="1163" x2="1159" y1="449" y2="447"/>
<line fill="#000000" stroke="#000000" stroke-width="1" x1="1154" x2="1149" y1="445" y2="444"/>
<line fill="#000000" stroke="#000000" stroke-width="1" x1="1145" x2="1140" y1="442" y2="440"/>
<line fill="#000000" stroke="#000000" stroke-width="1" x1="1135" x2="1130" y1="438" y2="437"/>
<line fill="#000000" stroke="#000000" stroke-width="1" x1="1126" x2="1121" y1="435" y2="433"/>
<line fill="#000000" stroke="#000000" stroke-width="1" x1="1116" x2="1112" y1="431" y2="429"/>
<line fill="#000000" stroke="#000000" stroke-width="1" x1="1107" x2="1102" y1="428" y2="426"/>
<line fill="#000000" stroke="#000000" stroke-width="1" x1="1098" x2="1093" y1="424" y2="422"/>
<line fill="#000000" stroke="#000000" stroke-width="1" x1="1088" x2="1083" y1="421" y2="419"/>
<line fill="#000000" stroke="#000000" stroke-width="1" x1="1095" x2="1082" y1="415" y2="418"/>
<line fill="#000000" stroke="#000000" stroke-width="1" x1="1090" x2="1082" y1="428" y2="418"/>
<text font-family="Dialog" font-size="12" x="1088" y="466">
&lt;&lt;extend&gt;&gt;</text>
<ellipse cx="992" cy="307" fill="#000000" rx="58.0" ry="21.0" stroke="#000000" stroke-width="1"/>
<ellipse cx="992" cy="307" fill="#ffffff" rx="57.0" ry="20.0" stroke="#ffffff" stroke-width="1"/>
<text font-family="Dialog" font-size="12" x="948" y="308">
Produce plots</text>
<line fill="#000000" stroke="#000000" stroke-width="1" x1="896" x2="900" y1="369" y2="367"/>
<line fill="#000000" stroke="#000000" stroke-width="1" x1="904" x2="908" y1="364" y2="361"/>
<line fill="#000000" stroke="#000000" stroke-width="1" x1="912" x2="916" y1="358" y2="356"/>
<line fill="#000000" stroke="#000000" stroke-width="1" x1="921" x2="925" y1="353" y2="350"/>
<line fill="#000000" stroke="#000000" stroke-width="1" x1="929" x2="933" y1="347" y2="345"/>
<line fill="#000000" stroke="#000000" stroke-width="1" x1="937" x2="942" y1="342" y2="339"/>
<line fill="#000000" stroke="#000000" stroke-width="1" x1="946" x2="950" y1="336" y2="334"/>
<line fill="#000000" stroke="#000000" stroke-width="1" x1="954" x2="958" y1="331" y2="328"/>
<line fill="#000000" stroke="#000000" stroke-width="1" x1="956" x2="963" y1="337" y2="325"/>
<line fill="#000000" stroke="#000000" stroke-width="1" x1="949" x2="963" y1="325" y2="325"/>
<text font-family="Dialog" font-size="12" x="843" y="343">
&lt;&lt;include&gt;&gt;</text>
<text font-family="Dialog" font-size="48" font-weight="bold" x="1198" y="531">
...</text>
<ellipse cx="134" cy="417" fill="#000000" rx="88.0" ry="27.0" stroke="#000000" stroke-width="1"/>
<ellipse cx="134" cy="417" fill="#ffffff" rx="87.0" ry="26.0" stroke="#ffffff" stroke-width="1"/>
<text font-family="Dialog" font-size="12" x="60" y="418">
Add sensetive Detector</text>
<polyline fill="none" points="211,404 309,388" stroke="#000000" stroke-width="1"/>
<ellipse cx="1015" cy="579" fill="#3c3cc8" rx="57.0" ry="21.0" stroke="#3c3cc8" stroke-width="1"/>
<ellipse cx="1015" cy="579" fill="#ffffc8" rx="56.0" ry="20.0" stroke="#ffffc8" stroke-width="1"/>
<text font-family="Dialog" font-size="12" x="974" y="580">
Detect event</text>
<ellipse cx="814" cy="497" fill="#000000" rx="88.0" ry="27.0" stroke="#000000" stroke-width="1"/>
<ellipse cx="814" cy="497" fill="#ffffff" rx="87.0" ry="26.0" stroke="#ffffff" stroke-width="1"/>
<text font-family="Dialog" font-size="12" x="740" y="498">
Generate primary event</text>
<line fill="#000000" stroke="#000000" stroke-width="1" x1="997" x2="994" y1="559" y2="556"/>
<line fill="#000000" stroke="#000000" stroke-width="1" x1="991" x2="987" y1="552" y2="548"/>
<line fill="#000000" stroke="#000000" stroke-width="1" x1="984" x2="981" y1="544" y2="541"/>
<line fill="#000000" stroke="#000000" stroke-width="1" x1="977" x2="974" y1="537" y2="533"/>
<line fill="#000000" stroke="#000000" stroke-width="1" x1="971" x2="967" y1="529" y2="526"/>
<line fill="#000000" stroke="#000000" stroke-width="1" x1="964" x2="961" y1="522" y2="518"/>
<line fill="#000000" stroke="#000000" stroke-width="1" x1="957" x2="954" y1="514" y2="511"/>
<line fill="#000000" stroke="#000000" stroke-width="1" x1="951" x2="947" y1="507" y2="503"/>
<line fill="#000000" stroke="#000000" stroke-width="1" x1="944" x2="941" y1="499" y2="496"/>
<line fill="#000000" stroke="#000000" stroke-width="1" x1="937" x2="934" y1="492" y2="488"/>
<line fill="#000000" stroke="#000000" stroke-width="1" x1="931" x2="927" y1="484" y2="480"/>
<line fill="#000000" stroke="#000000" stroke-width="1" x1="924" x2="921" y1="477" y2="473"/>
<line fill="#000000" stroke="#000000" stroke-width="1" x1="917" x2="914" y1="469" y2="465"/>
<line fill="#000000" stroke="#000000" stroke-width="1" x1="911" x2="907" y1="462" y2="458"/>
<line fill="#000000" stroke="#000000" stroke-width="1" x1="904" x2="901" y1="454" y2="450"/>
<line fill="#000000" stroke="#000000" stroke-width="1" x1="897" x2="894" y1="447" y2="443"/>
<line fill="#000000" stroke="#000000" stroke-width="1" x1="891" x2="887" y1="439" y2="435"/>
<line fill="#000000" stroke="#000000" stroke-width="1" x1="884" x2="881" y1="432" y2="428"/>
<line fill="#000000" stroke="#000000" stroke-width="1" x1="894" x2="881" y1="432" y2="428"/>
<line fill="#000000" stroke="#000000" stroke-width="1" x1="883" x2="881" y1="441" y2="428"/>
<text font-family="Dialog" font-size="12" x="926" y="473">
&lt;&lt;include&gt;&gt;</text>
<line fill="#000000" stroke="#000000" stroke-width="1" x1="887" x2="891" y1="613" y2="612"/>
<line fill="#000000" stroke="#000000" stroke-width="1" x1="896" x2="901" y1="611" y2="610"/>
<line fill="#000000" stroke="#000000" stroke-width="1" x1="906" x2="911" y1="608" y2="607"/>
<line fill="#000000" stroke="#000000" stroke-width="1" x1="916" x2="921" y1="606" y2="604"/>
<line fill="#000000" stroke="#000000" stroke-width="1" x1="926" x2="930" y1="603" y2="602"/>
<line fill="#000000" stroke="#000000" stroke-width="1" x1="935" x2="940" y1="600" y2="599"/>
<line fill="#000000" stroke="#000000" stroke-width="1" x1="945" x2="950" y1="598" y2="596"/>
<line fill="#000000" stroke="#000000" stroke-width="1" x1="955" x2="960" y1="595" y2="594"/>
<line fill="#000000" stroke="#000000" stroke-width="1" x1="965" x2="968" y1="592" y2="591"/>
<line fill="#000000" stroke="#000000" stroke-width="1" x1="958" x2="968" y1="600" y2="591"/>
<line fill="#000000" stroke="#000000" stroke-width="1" x1="954" x2="968" y1="587" y2="591"/>
<text font-family="Dialog" font-size="12" x="846" y="596">
&lt;&lt;include&gt;&gt;</text>
<line fill="#000000" stroke="#000000" stroke-width="1" x1="833" x2="833" y1="606" y2="602"/>
<line fill="#000000" stroke="#000000" stroke-width="1" x1="832" x2="831" y1="597" y2="592"/>
<line fill="#000000" stroke="#000000" stroke-width="1" x1="830" x2="829" y1="587" y2="582"/>
<line fill="#000000" stroke="#000000" stroke-width="1" x1="828" x2="827" y1="577" y2="572"/>
<line fill="#000000" stroke="#000000" stroke-width="1" x1="826" x2="825" y1="567" y2="562"/>
<line fill="#000000" stroke="#000000" stroke-width="1" x1="825" x2="824" y1="557" y2="552"/>
<line fill="#000000" stroke="#000000" stroke-width="1" x1="823" x2="822" y1="547" y2="542"/>
<line fill="#000000" stroke="#000000" stroke-width="1" x1="821" x2="820" y1="537" y2="532"/>
<line fill="#000000" stroke="#000000" stroke-width="1" x1="819" x2="818" y1="527" y2="523"/>
<line fill="#000000" stroke="#000000" stroke-width="1" x1="827" x2="818" y1="533" y2="523"/>
<line fill="#000000" stroke="#000000" stroke-width="1" x1="813" x2="818" y1="536" y2="523"/>
<text font-family="Dialog" font-size="12" x="734" y="548">
&lt;&lt;include&gt;&gt;</text>
<ellipse cx="1245" cy="705" fill="#000000" rx="87.0" ry="27.0" stroke="#000000" stroke-width="1"/>
<ellipse cx="1245" cy="705" fill="#ffffff" rx="86.0" ry="26.0" stroke="#ffffff" stroke-width="1"/>
<text font-family="Dialog" font-size="12" x="1171" y="706">
ECAL sensitive detector</text>
<ellipse cx="1198" cy="785" fill="#000000" rx="88.0" ry="27.0" stroke="#000000" stroke-width="1"/>
<ellipse cx="1198" cy="785" fill="#ffffff" rx="87.0" ry="26.0" stroke="#ffffff" stroke-width="1"/>
<text font-family="Dialog" font-size="12" x="1124" y="786">
HCAL sensitive detector</text>
<line fill="#000000" stroke="#000000" stroke-width="1" x1="1202" x2="1198" y1="681" y2="679"/>
<line fill="#000000" stroke="#000000" stroke-width="1" x1="1194" x2="1189" y1="677" y2="674"/>
<line fill="#000000" stroke="#000000" stroke-width="1" x1="1185" x2="1180" y1="672" y2="669"/>
<line fill="#000000" stroke="#000000" stroke-width="1" x1="1176" x2="1172" y1="667" y2="665"/>
<line fill="#000000" stroke="#000000" stroke-width="1" x1="1167" x2="1163" y1="662" y2="660"/>
<line fill="#000000" stroke="#000000" stroke-width="1" x1="1158" x2="1154" y1="657" y2="655"/>
<line fill="#000000" stroke="#000000" stroke-width="1" x1="1150" x2="1145" y1="653" y2="650"/>
<line fill="#000000" stroke="#000000" stroke-width="1" x1="1141" x2="1136" y1="648" y2="645"/>
<line fill="#000000" stroke="#000000" stroke-width="1" x1="1132" x2="1128" y1="643" y2="641"/>
<line fill="#000000" stroke="#000000" stroke-width="1" x1="1123" x2="1119" y1="638" y2="636"/>
<line fill="#000000" stroke="#000000" stroke-width="1" x1="1114" x2="1110" y1="633" y2="631"/>
<line fill="#000000" stroke="#000000" stroke-width="1" x1="1106" x2="1101" y1="629" y2="626"/>
<line fill="#000000" stroke="#000000" stroke-width="1" x1="1097" x2="1092" y1="624" y2="621"/>
<line fill="#000000" stroke="#000000" stroke-width="1" x1="1088" x2="1084" y1="619" y2="617"/>
<line fill="#000000" stroke="#000000" stroke-width="1" x1="1079" x2="1075" y1="614" y2="612"/>
<line fill="#000000" stroke="#000000" stroke-width="1" x1="1070" x2="1066" y1="609" y2="607"/>
<line fill="#000000" stroke="#000000" stroke-width="1" x1="1061" x2="1057" y1="605" y2="602"/>
<line fill="#000000" stroke="#000000" stroke-width="1" x1="1053" x2="1048" y1="600" y2="597"/>
<line fill="#000000" stroke="#000000" stroke-width="1" x1="1059" x2="1046" y1="595" y2="596"/>
<line fill="#000000" stroke="#000000" stroke-width="1" x1="1053" x2="1046" y1="607" y2="596"/>
<text font-family="Dialog" font-size="12" x="1189" y="670">
&lt;&lt;extend&gt;&gt;</text>
<line fill="#000000" stroke="#000000" stroke-width="1" x1="1174" x2="1171" y1="758" y2="755"/>
<line fill="#000000" stroke="#000000" stroke-width="1" x1="1168" x2="1164" y1="751" y2="747"/>
<line fill="#000000" stroke="#000000" stroke-width="1" x1="1161" x2="1158" y1="743" y2="740"/>
<line fill="#000000" stroke="#000000" stroke-width="1" x1="1154" x2="1151" y1="736" y2="732"/>
<line fill="#000000" stroke="#000000" stroke-width="1" x1="1148" x2="1144" y1="728" y2="725"/>
<line fill="#000000" stroke="#000000" stroke-width="1" x1="1141" x2="1138" y1="721" y2="717"/>
<line fill="#000000" stroke="#000000" stroke-width="1" x1="1134" x2="1131" y1="713" y2="710"/>
<line fill="#000000" stroke="#000000" stroke-width="1" x1="1128" x2="1124" y1="706" y2="702"/>
<line fill="#000000" stroke="#000000" stroke-width="1" x1="1121" x2="1118" y1="698" y2="695"/>
<line fill="#000000" stroke="#000000" stroke-width="1" x1="1114" x2="1111" y1="691" y2="687"/>
<line fill="#000000" stroke="#000000" stroke-width="1" x1="1108" x2="1104" y1="683" y2="680"/>
<line fill="#000000" stroke="#000000" stroke-width="1" x1="1101" x2="1098" y1="676" y2="672"/>
<line fill="#000000" stroke="#000000" stroke-width="1" x1="1094" x2="1091" y1="668" y2="665"/>
<line fill="#000000" stroke="#000000" stroke-width="1" x1="1088" x2="1084" y1="661" y2="657"/>
<line fill="#000000" stroke="#000000" stroke-width="1" x1="1081" x2="1078" y1="653" y2="650"/>
<line fill="#000000" stroke="#000000" stroke-width="1" x1="1074" x2="1071" y1="646" y2="642"/>
<line fill="#000000" stroke="#000000" stroke-width="1" x1="1068" x2="1064" y1="638" y2="635"/>
<line fill="#000000" stroke="#000000" stroke-width="1" x1="1061" x2="1058" y1="631" y2="627"/>
<line fill="#000000" stroke="#000000" stroke-width="1" x1="1054" x2="1051" y1="623" y2="620"/>
<line fill="#000000" stroke="#000000" stroke-width="1" x1="1048" x2="1044" y1="616" y2="612"/>
<line fill="#000000" stroke="#000000" stroke-width="1" x1="1041" x2="1038" y1="608" y2="605"/>
<line fill="#000000" stroke="#000000" stroke-width="1" x1="1034" x2="1032" y1="601" y2="598"/>
<line fill="#000000" stroke="#000000" stroke-width="1" x1="1045" x2="1032" y1="602" y2="598"/>
<line fill="#000000" stroke="#000000" stroke-width="1" x1="1034" x2="1032" y1="611" y2="598"/>
<text font-family="Dialog" font-size="12" x="1063" y="745">
&lt;&lt;extend&gt;&gt;</text>
<text font-family="Dialog" font-size="48" font-weight="bold" x="1190" y="835">
...</text>
<ellipse cx="1207" cy="128" fill="#000000" rx="121.0" ry="34.0" stroke="#000000" stroke-width="1"/>
<ellipse cx="1207" cy="128" fill="#ffffff" rx="120.0" ry="33.0" stroke="#ffffff" stroke-width="1"/>
<text font-family="Dialog" font-size="12" x="1098" y="129">
Read from TTree (ROOT file format)</text>
<ellipse cx="1204" cy="217" fill="#000000" rx="126.0" ry="35.0" stroke="#000000" stroke-width="1"/>
<ellipse cx="1204" cy="217" fill="#ffffff" rx="125.0" ry="34.0" stroke="#ffffff" stroke-width="1"/>
<text font-family="Dialog" font-size="12" x="1090" y="218">
Read raw (DaqDataDecoding library)</text>
<text font-family="Dialog" font-size="48" font-weight="bold" x="1174" y="275">
...</text>
<line fill="#000000" stroke="#000000" stroke-width="1" x1="1097" x2="1093" y1="142" y2="142"/>
<line fill="#000000" stroke="#000000" stroke-width="1" x1="1088" x2="1083" y1="143" y2="143"/>
<line fill="#000000" stroke="#000000" stroke-width="1" x1="1078" x2="1073" y1="144" y2="145"/>
<line fill="#000000" stroke="#000000" stroke-width="1" x1="1068" x2="1063" y1="145" y2="146"/>
<line fill="#000000" stroke="#000000" stroke-width="1" x1="1058" x2="1053" y1="147" y2="147"/>
<line fill="#000000" stroke="#000000" stroke-width="1" x1="1048" x2="1043" y1="148" y2="149"/>
<line fill="#000000" stroke="#000000" stroke-width="1" x1="1038" x2="1033" y1="149" y2="150"/>
<line fill="#000000" stroke="#000000" stroke-width="1" x1="1028" x2="1023" y1="151" y2="151"/>
<line fill="#000000" stroke="#000000" stroke-width="1" x1="1018" x2="1013" y1="152" y2="153"/>
<line fill="#000000" stroke="#000000" stroke-width="1" x1="1008" x2="1003" y1="153" y2="154"/>
<line fill="#000000" stroke="#000000" stroke-width="1" x1="998" x2="993" y1="155" y2="155"/>
<line fill="#000000" stroke="#000000" stroke-width="1" x1="988" x2="983" y1="156" y2="157"/>
<line fill="#000000" stroke="#000000" stroke-width="1" x1="978" x2="973" y1="157" y2="158"/>
<line fill="#000000" stroke="#000000" stroke-width="1" x1="968" x2="963" y1="159" y2="159"/>
<line fill="#000000" stroke="#000000" stroke-width="1" x1="958" x2="953" y1="160" y2="161"/>
<line fill="#000000" stroke="#000000" stroke-width="1" x1="948" x2="943" y1="161" y2="162"/>
<line fill="#000000" stroke="#000000" stroke-width="1" x1="950" x2="940" y1="154" y2="163"/>
<line fill="#000000" stroke="#000000" stroke-width="1" x1="952" x2="940" y1="168" y2="163"/>
<text font-family="Dialog" font-size="12" x="975" y="125">
&lt;&lt;extend&gt;&gt;</text>
<line fill="#000000" stroke="#000000" stroke-width="1" x1="1092" x2="1088" y1="200" y2="200"/>
<line fill="#000000" stroke="#000000" stroke-width="1" x1="1083" x2="1078" y1="199" y2="198"/>
<line fill="#000000" stroke="#000000" stroke-width="1" x1="1073" x2="1068" y1="198" y2="197"/>
<line fill="#000000" stroke="#000000" stroke-width="1" x1="1063" x2="1058" y1="196" y2="195"/>
<line fill="#000000" stroke="#000000" stroke-width="1" x1="1053" x2="1048" y1="195" y2="194"/>
<line fill="#000000" stroke="#000000" stroke-width="1" x1="1043" x2="1038" y1="193" y2="193"/>
<line fill="#000000" stroke="#000000" stroke-width="1" x1="1033" x2="1028" y1="192" y2="191"/>
<line fill="#000000" stroke="#000000" stroke-width="1" x1="1023" x2="1018" y1="190" y2="190"/>
<line fill="#000000" stroke="#000000" stroke-width="1" x1="1013" x2="1008" y1="189" y2="188"/>
<line fill="#000000" stroke="#000000" stroke-width="1" x1="1003" x2="998" y1="188" y2="187"/>
<line fill="#000000" stroke="#000000" stroke-width="1" x1="993" x2="988" y1="186" y2="185"/>
<line fill="#000000" stroke="#000000" stroke-width="1" x1="983" x2="978" y1="185" y2="184"/>
<line fill="#000000" stroke="#000000" stroke-width="1" x1="973" x2="968" y1="183" y2="183"/>
<line fill="#000000" stroke="#000000" stroke-width="1" x1="963" x2="958" y1="182" y2="181"/>
<line fill="#000000" stroke="#000000" stroke-width="1" x1="953" x2="948" y1="180" y2="180"/>
<line fill="#000000" stroke="#000000" stroke-width="1" x1="943" x2="940" y1="179" y2="178"/>
<line fill="#000000" stroke="#000000" stroke-width="1" x1="952" x2="940" y1="172" y2="178"/>
<line fill="#000000" stroke="#000000" stroke-width="1" x1="950" x2="940" y1="186" y2="178"/>
<text font-family="Dialog" font-size="12" x="963" y="218">
&lt;&lt;extend&gt;&gt;</text>
<ellipse cx="956" cy="742" fill="#000000" rx="70.0" ry="24.0" stroke="#000000" stroke-width="1"/>
<ellipse cx="956" cy="742" fill="#ffffff" rx="69.0" ry="23.0" stroke="#ffffff" stroke-width="1"/>
<text font-family="Dialog" font-size="12" x="899" y="743">
Generate A' event</text>
<line fill="#000000" stroke="#000000" stroke-width="1" x1="932" x2="929" y1="719" y2="716"/>
<line fill="#000000" stroke="#000000" stroke-width="1" x1="925" x2="922" y1="712" y2="709"/>
<line fill="#000000" stroke="#000000" stroke-width="1" x1="918" x2="914" y1="705" y2="702"/>
<line fill="#000000" stroke="#000000" stroke-width="1" x1="911" x2="907" y1="698" y2="695"/>
<line fill="#000000" stroke="#000000" stroke-width="1" x1="904" x2="900" y1="691" y2="688"/>
<line fill="#000000" stroke="#000000" stroke-width="1" x1="896" x2="893" y1="684" y2="681"/>
<line fill="#000000" stroke="#000000" stroke-width="1" x1="889" x2="886" y1="677" y2="674"/>
<line fill="#000000" stroke="#000000" stroke-width="1" x1="882" x2="878" y1="670" y2="667"/>
<line fill="#000000" stroke="#000000" stroke-width="1" x1="875" x2="871" y1="663" y2="660"/>
<line fill="#000000" stroke="#000000" stroke-width="1" x1="867" x2="864" y1="656" y2="653"/>
<line fill="#000000" stroke="#000000" stroke-width="1" x1="860" x2="859" y1="649" y2="648"/>
<line fill="#000000" stroke="#000000" stroke-width="1" x1="872" x2="859" y1="651" y2="648"/>
<line fill="#000000" stroke="#000000" stroke-width="1" x1="862" x2="859" y1="661" y2="648"/>
<text font-family="Dialog" font-size="12" x="934" y="699">
&lt;&lt;extend&gt;&gt;</text>
<ellipse cx="529" cy="766" fill="#000000" rx="123.0" ry="40.0" stroke="#000000" stroke-width="1"/>
<ellipse cx="529" cy="766" fill="#ffffff" rx="122.0" ry="39.0" stroke="#ffffff" stroke-width="1"/>
<text font-family="Dialog" font-size="12" x="418" y="767">
Generate A' events --- aprimeEvGen</text>
<line fill="#000000" stroke="#000000" stroke-width="1" x1="650" x2="655" y1="758" y2="758"/>
<line fill="#000000" stroke="#000000" stroke-width="1" x1="660" x2="665" y1="758" y2="758"/>
<line fill="#000000" stroke="#000000" stroke-width="1" x1="670" x2="675" y1="757" y2="757"/>
<line fill="#000000" stroke="#000000" stroke-width="1" x1="680" x2="685" y1="757" y2="757"/>
<line fill="#000000" stroke="#000000" stroke-width="1" x1="690" x2="695" y1="756" y2="756"/>
<line fill="#000000" stroke="#000000" stroke-width="1" x1="700" x2="705" y1="756" y2="755"/>
<line fill="#000000" stroke="#000000" stroke-width="1" x1="710" x2="715" y1="755" y2="755"/>
<line fill="#000000" stroke="#000000" stroke-width="1" x1="720" x2="725" y1="755" y2="754"/>
<line fill="#000000" stroke="#000000" stroke-width="1" x1="730" x2="735" y1="754" y2="754"/>
<line fill="#000000" stroke="#000000" stroke-width="1" x1="740" x2="745" y1="754" y2="753"/>
<line fill="#000000" stroke="#000000" stroke-width="1" x1="750" x2="755" y1="753" y2="753"/>
<line fill="#000000" stroke="#000000" stroke-width="1" x1="760" x2="765" y1="752" y2="752"/>
<line fill="#000000" stroke="#000000" stroke-width="1" x1="770" x2="775" y1="752" y2="752"/>
<line fill="#000000" stroke="#000000" stroke-width="1" x1="780" x2="785" y1="751" y2="751"/>
<line fill="#000000" stroke="#000000" stroke-width="1" x1="790" x2="795" y1="751" y2="751"/>
<line fill="#000000" stroke="#000000" stroke-width="1" x1="800" x2="805" y1="750" y2="750"/>
<line fill="#000000" stroke="#000000" stroke-width="1" x1="810" x2="815" y1="750" y2="749"/>
<line fill="#000000" stroke="#000000" stroke-width="1" x1="820" x2="825" y1="749" y2="749"/>
<line fill="#000000" stroke="#000000" stroke-width="1" x1="830" x2="835" y1="749" y2="748"/>
<line fill="#000000" stroke="#000000" stroke-width="1" x1="840" x2="845" y1="748" y2="748"/>
<line fill="#000000" stroke="#000000" stroke-width="1" x1="850" x2="855" y1="747" y2="747"/>
<line fill="#000000" stroke="#000000" stroke-width="1" x1="860" x2="865" y1="747" y2="747"/>
<line fill="#000000" stroke="#000000" stroke-width="1" x1="870" x2="875" y1="746" y2="746"/>
<line fill="#000000" stroke="#000000" stroke-width="1" x1="880" x2="885" y1="746" y2="746"/>
<line fill="#000000" stroke="#000000" stroke-width="1" x1="874" x2="886" y1="752" y2="745"/>
<line fill="#000000" stroke="#000000" stroke-width="1" x1="873" x2="886" y1="738" y2="745"/>
<text font-family="Dialog" font-size="12" x="726" y="767">
&lt;&lt;include&gt;&gt;</text>
<polyline fill="none" points="310,636 469,730" stroke="#000000" stroke-width="1"/>
<ellipse cx="847" cy="811" fill="#000000" rx="57.0" ry="21.0" stroke="#000000" stroke-width="1"/>
<ellipse cx="847" cy="811" fill="#ffffff" rx="56.0" ry="20.0" stroke="#ffffff" stroke-width="1"/>
<text font-family="Dialog" font-size="12" x="812" y="812">
Save event</text>
<line fill="#000000" stroke="#000000" stroke-width="1" x1="793" x2="789" y1="803" y2="803"/>
<line fill="#000000" stroke="#000000" stroke-width="1" x1="784" x2="779" y1="802" y2="801"/>
<line fill="#000000" stroke="#000000" stroke-width="1" x1="774" x2="769" y1="801" y2="800"/>
<line fill="#000000" stroke="#000000" stroke-width="1" x1="764" x2="759" y1="799" y2="798"/>
<line fill="#000000" stroke="#000000" stroke-width="1" x1="754" x2="749" y1="798" y2="797"/>
<line fill="#000000" stroke="#000000" stroke-width="1" x1="744" x2="739" y1="796" y2="796"/>
<line fill="#000000" stroke="#000000" stroke-width="1" x1="734" x2="729" y1="795" y2="794"/>
<line fill="#000000" stroke="#000000" stroke-width="1" x1="724" x2="719" y1="793" y2="793"/>
<line fill="#000000" stroke="#000000" stroke-width="1" x1="714" x2="709" y1="792" y2="791"/>
<line fill="#000000" stroke="#000000" stroke-width="1" x1="704" x2="699" y1="791" y2="790"/>
<line fill="#000000" stroke="#000000" stroke-width="1" x1="694" x2="689" y1="789" y2="788"/>
<line fill="#000000" stroke="#000000" stroke-width="1" x1="684" x2="679" y1="788" y2="787"/>
<line fill="#000000" stroke="#000000" stroke-width="1" x1="674" x2="669" y1="786" y2="786"/>
<line fill="#000000" stroke="#000000" stroke-width="1" x1="664" x2="659" y1="785" y2="784"/>
<line fill="#000000" stroke="#000000" stroke-width="1" x1="654" x2="649" y1="783" y2="783"/>
<line fill="#000000" stroke="#000000" stroke-width="1" x1="644" x2="641" y1="782" y2="781"/>
<line fill="#000000" stroke="#000000" stroke-width="1" x1="653" x2="641" y1="775" y2="781"/>
<line fill="#000000" stroke="#000000" stroke-width="1" x1="651" x2="641" y1="789" y2="781"/>
<text font-family="Dialog" font-size="12" x="699" y="820">
&lt;&lt;extend&gt;&gt;</text>
<line fill="#000000" stroke="#000000" stroke-width="1" x1="785" x2="781" y1="417" y2="418"/>
<line fill="#000000" stroke="#000000" stroke-width="1" x1="776" x2="771" y1="419" y2="421"/>
<line fill="#000000" stroke="#000000" stroke-width="1" x1="766" x2="761" y1="422" y2="423"/>
<line fill="#000000" stroke="#000000" stroke-width="1" x1="757" x2="752" y1="425" y2="426"/>
<line fill="#000000" stroke="#000000" stroke-width="1" x1="747" x2="742" y1="428" y2="429"/>
<line fill="#000000" stroke="#000000" stroke-width="1" x1="737" x2="733" y1="430" y2="432"/>
<line fill="#000000" stroke="#000000" stroke-width="1" x1="728" x2="723" y1="433" y2="435"/>
<line fill="#000000" stroke="#000000" stroke-width="1" x1="718" x2="713" y1="436" y2="437"/>
<line fill="#000000" stroke="#000000" stroke-width="1" x1="708" x2="704" y1="439" y2="440"/>
<line fill="#000000" stroke="#000000" stroke-width="1" x1="699" x2="694" y1="442" y2="443"/>
<line fill="#000000" stroke="#000000" stroke-width="1" x1="689" x2="684" y1="444" y2="446"/>
<line fill="#000000" stroke="#000000" stroke-width="1" x1="680" x2="675" y1="447" y2="449"/>
<line fill="#000000" stroke="#000000" stroke-width="1" x1="670" x2="665" y1="450" y2="451"/>
<line fill="#000000" stroke="#000000" stroke-width="1" x1="660" x2="655" y1="453" y2="454"/>
<line fill="#000000" stroke="#000000" stroke-width="1" x1="651" x2="646" y1="456" y2="457"/>
<line fill="#000000" stroke="#000000" stroke-width="1" x1="641" x2="636" y1="458" y2="460"/>
<line fill="#000000" stroke="#000000" stroke-width="1" x1="631" x2="627" y1="461" y2="463"/>
<line fill="#000000" stroke="#000000" stroke-width="1" x1="622" x2="617" y1="464" y2="465"/>
<line fill="#000000" stroke="#000000" stroke-width="1" x1="612" x2="607" y1="467" y2="468"/>
<line fill="#000000" stroke="#000000" stroke-width="1" x1="611" x2="602" y1="459" y2="470"/>
<line fill="#000000" stroke="#000000" stroke-width="1" x1="615" x2="602" y1="473" y2="470"/>
<text font-family="Dialog" font-size="12" x="644" y="411">
&lt;&lt;extend&gt;&gt;</text>
<ellipse cx="313" cy="207" fill="#000000" rx="75.0" ry="25.0" stroke="#000000" stroke-width="1"/>
<ellipse cx="313" cy="207" fill="#ffffff" rx="74.0" ry="24.0" stroke="#ffffff" stroke-width="1"/>
<text font-family="Dialog" font-size="12" x="251" y="208">
Modify event format</text>
<polyline fill="none" points="313,231 314,319" stroke="#000000" stroke-width="1"/>
<text font-family="Dialog" font-size="24" x="454" y="293">
Applications</text>
</svg>
